…
``` r
month_df =
  tibble(
    month = 1:12,
    month_name = month.name
  )

precip_df =
  bind_rows(precip_2017,precip_2018)

left_join(precip_df, month_df, by = "month") %>%
  relocate(month_name, .after = "year")
```

    ## # A tibble: 24 x 4
    ##     year month_name month total
    ##    <dbl> <chr>      <dbl> <dbl>
    ##  1  2017 January        1  2.34
    ##  2  2017 February       2  1.46
    ##  3  2017 March          3  3.57
    ##  4  2017 April          4  3.99
    ##  5  2017 May            5  5.64
    ##  6  2017 June           6  1.4 
    ##  7  2017 July           7  7.09
    ##  8  2017 August         8  4.44
    ##  9  2017 September      9  1.95
    ## 10  2017 October       10  0   
    ## # … with 14 more rows
…
